{
  "project_info": {
    "project_number": "198960469564",
    "firebase_url": "https://segundoparcialandroid.firebaseio.com",
    "project_id": "segundoparcialandroid",
    "storage_bucket": "segundoparcialandroid.appspot.com"
  },
  "client": [
    {
      "client_info": {
        "mobilesdk_app_id": "1:198960469564:android:97595b6b973be6dc",
        "android_client_info": {
          "package_name": "com.example.marti.myapplication"
        }
      },
      "oauth_client": [
        {
          "client_id": "198960469564-74amq3lsnl8k094kt968v05emc9i4dkk.apps.googleusercontent.com",
          "client_type": 1,
          "android_info": {
            "package_name": "com.example.marti.myapplication",
            "certificate_hash": "bc3ef2eb19a2cb0d1ba4831c435fa8746812008d"
          }
        },
        {
          "client_id": "198960469564-3ul8af1j9dc5q392t033kvt2llclmci1.apps.googleusercontent.com",
          "client_type": 3
        }
      ],
      "api_key": [
        {
          "current_key": "AIzaSyD6oM2PnINmdelyFRnL7ADL2iQ1fnsCjwM"
        }
      ],
      "services": {
        "analytics_service": {
          "status": 1
        },
        "appinvite_service": {
          "status": 2,
          "other_platform_oauth_client": [
            {
              "client_id": "198960469564-3ul8af1j9dc5q392t033kvt2llclmci1.apps.googleusercontent.com",
              "client_type": 3
            }
          ]
        },
        "ads_service": {
          "status": 2
        }
      }
    }
  ],
  "configuration_version": "1"
}